Destino,Tarifa,Horarios
Arandas,196,"09:30, 13:20 "
Atotonilco,258,"09:30, 13:20"
Encarnación de Díaz,47,"07:00, 08:00, 08:45, 09:30, 10:00, 10:30, 11:00, 12:00, 13:00, 13:20, 14:00, 15:00, 16:00, 17:00, 18:00, 19:20, 19:40, 20:20"
Jalostotitlán,140,"09:30, 13:20"
La Barca,305,"09:30, 13:20"
Lagos de Moreno,111,"07:00, 08:00, 10:00, 11:00, 13:00, 15:00, 17:00, 19:20"
León,182,"07:00, 08:00, 10:00, 11:00, 13:00, 15:00, 17:00, 19:20"
San Juan de los lagos,106,"08:45, 09:30, 10:30, 12:00, 13:20, 14:00, 16:00, 18:00, 19:40"
Santa María del Valle,182,"09:30, 13:20"
San Miguel el Alto,163,"09:30, 13:20"
Vista Hermosa,326,13:20
Zamora,388,13:20
