﻿Destino,Tarifa,Horarios
AEROPUERTO MEXICO,425,"00:10, 00:30, 00:50, 01:20, 01:50, 02:20, 03:00, 03:40, 04:20, 05:00, 05:40, 06:20, 07:00, 07:40, 08:20, 09:10, 10:00, 10:50, 11:40, 12:30, 13:20,  14:10, 15:00, 16:00, 17:00, 18:00, 23:00"
AGUASCALIENTES,555,"02:10, 11:00, 17:20"
ATLACOMULCO,190,"02:45, 07:30, 09:30, 10:30, 11:30, 12:30, 14:30 15:30, 16:30, 17:30, 18:30"
CELAYA,80,"06:00, 8:20, 09:30, 11:50, 12:50, 13:00, 14:10, 15:20, 16:30, 17:00, 17:30, 17:50,  18:50, 19:20, 19:40, 20:30, 20:40, 20:50, 21:20, 21:40, 22:00, 23:30"
COLIMA,930,23:00
CUAUTITLAN IZCALLI,335,"07:10, 09:10, 11:10, 13:10, 14:40, 16:10, 17:40"
GUADALAJARA,660,"00:30, 05:00, 06:20, 07:40, 09:00, 10:20, 11:40, 13:00, 14:20, 15:40, 17:00, 18:30, 20:00, 21:30, 23:00"
GUANAJUATO,290,"12:20, 17:45"
IRAPUATO,185,"00:30, 05:00, 06:20, 07:40, 09:00, 10:20, 11:00, 11:40, 12:20, 13:00, 13:40, 14:20, 15:40, 16;20, 17:00, 17:45, 18:30, 20:00, 20:40, 21:20, 21:30, 23:00"
IXTAPA,1030,23:30
MANZANILLO,1190,23:00
MAZATLAN,1595,20:40
MEX. CTRAL. NORTE,365,"04:00, 05:00, 06:00, 06:30, 07:00, 07:30, 08:00, 08:30, 09:00, 09:30, 10:00, 10:30, 11:00, 11:30, 12:00, 12:30, 13:00, 13:30, 14:00, 14:30, 15:00, 15:30, 16:00, 16:30, 17:10, 17:50, 18:30, 19:20, 20:10, 21:00, 22:00"
MEXICO COAPA,375,"08:40, 10:00, 12:00, 13:30, 15:00, 16:00, 18:00"
MEXICO OBSERVATORIO,335,"07:10, 09:10, 11:10, 13:10, 14:40, 16:10, 17:40"
MORELIA,320,"06:00, 07:10, 08:20, 09:30, 10:40, 11:50, 13:00, 14:10, 15:20, 16:30, 17:50, 19:20, 20:50"
MOROLEON,225,"07:00, 10:40"
LA PIEDAD,355,16:20
LEON,316,"02:10, 06:40, 08:20, 10:00, 11:00, 12:00, 13:00, 14:00, 15:00, 16:00, 17:20, 18:40, 20:00"
PATIO SANTA FE,335,"07:10, 09:10, 11:10, 13:10, 14:40, 16:10, 17:40"
PLAZA DE LAS AMERICAS,365,"07:40, 10:40, 14:20, 17:00"
PLAZA CIUDAD JARDIN,365,"07:40, 10:40, 14:20, 17:00"
SAN LUIS POTOSI,335,"07:00, 08:30, 10:00, 11:40, 13:20, 15:10, 17:00, 18:20, 19:40, 21:00"
TOLUCA,300,"02:45, 07:30, 09:30, 10:30, 11:30, 12:30, 14:30 15:30, 16:30, 17:30, 18:30"
PUERTO VALLARTA,1300,21:20
NUEVO VALLARTA,1305,21:20
ZAMORA,455,16:20
ZAPOPAN,680,"13:00, 20:40"
ZIHUATANEJO,1030,23:30