Destino,Tarifa,Horarios
AMECA,122,05:15
ARANDAS,165,"06:15, 07:15, 08:15, 09:15, 10:15, 11:15, 12:15, 13:15, 14:15, 15:15, 16:15, 17:15, 18:15, 20:00"
ATOTONILCO,156,"05:00, 05:40, 06:20, 07:00, 07:40, 08:20, 09:00, 09:40, 10:20, 11:00, 11:40, 12:20, 13:00, 13:40, 14:20, 15:00, 15:40, 16:20, 17:00, 17:40, 18:20, 19:00, 19:40, 20:20, 21:30"
AYOTLAN,191,"05:00, 05:40, 06:20, 07:00, 07:40, 08:20, 09:00, 09:40, 10:20, 11:00, 11:40, 12:20, 13:00, 13:40, 14:20, 15:00, 15:40, 16:20, 17:00, 17:40, 18:20, 19:00, 19:40, 20:20, 21:30"
LA BARCA,175,"05:00, 05:30, 06:00, 06:30, 07:00, 07:30, 08:00, 08:30, 09:00, 09:30, 10:00, 10:30, 11:00, 11:30, 12:00, 12:30, 13:00, 13:30, 14:00, 14:30, 15:00, 15:30, 16:00, 16:30, 17:00, 17:30, 18:00, 18:30, 19:00, 19:30, 20:00, 20:30, 21:00, 21:45"
BRISEÑAS,179,"05:00, 05:00, 05:30, 06:30,  07:30, 08:30, 09:30, 10:00, 10:30, 11:30, 12:00, 12:30, 13:00, 13:30, 14:30, 15:00, 15:30, 16:30, 18:00, 19:30, 20:00, 21:45"
CAPILLA DE GPE,130,"06:15, 07:15, 08:15, 09:15, 10:15, 11:15, 12:15, 13:15, 14:15, 15:15, 16:15, 17:15, 18:15, 20:00"
CRO. DE ATOTONILCO,174,"06:15, 07:15, 08:15, 09:15, 10:15, 11:15, 12:15, 13:15, 14:15, 15:15, 16:15, 17:15, 18:15, 20:00"
COCULA,102,05:15
COMANJA,321,"07:30, 08:30, 12:30, 14:30"
COYOTES,73,"04:40, 05:00, 05:40, 07:40, 08:20, 09:40, 10:20, 11:00, 12:20, 13:00, 14:20, 16:20, 17:00, 19:00, 19:40, 20:20"
CASETA DE TEPOTZOTLAN,792,"05:00, 07:00, 09:00, 10:00, 11:40, 15:00, 18:30"
CELAYA,460,"05:00, 07:40, 08:20, 09:40, 10:00, 11:00, 11:40, 12:00, 12:20, 13:00, 13:40, 14:20, 16:20, 17:00, 18:30, 21:30"
DEGOLLADO,233,"05:00, 05:40, 06:20, 07:00, 07:40, 08:20, 09:00, 09:40, 10:20, 11:00, 11:40, 12:20, 13:00, 13:40, 14:20, 15:00, 15:40, 16:20, 17:00, 17:40, 18:20, 19:00, 19:40, 20:20, 21:30"
HUASCATO,209,"05:00, 05:40, 07:00, 07:40, 08:20, 09:00, 09:40, 10:20, 11:00, 11:40, 12:20, 13:00, 13:40, 14:20, 15:00, 16:20, 17:00, 17:40, 19:00, 19:40, 20:20, "
IXTLAN DE LOS HERVORES,226," 05:30, 06:30, 07:30, 08:30, 09:30, 10:30, 11:30, 12:30, 13:30, 14:30, 15:30, 16:30,18:00, 21:45"
JALOSTOTITLAN,166,"06:45, 08:45, 09:45, 10:45, 11:45,12:45, 14:45, 16:45, 18:45"
JAMAY,146," 05:00, 05:30, 06:00, 06:30, 07:00, 07:30, 08:00, 08:30, 09:00, 09:30, 10:00, 10:30, 11:00, 11:30, 12:00, 12:30, 13:00, 13:30, 14:00, 14:30. 15:00, 15:30, 16:00, 16:30, 17:00, 17:30, 18:00, 18:30, 19:30, 20:00, 20:30, 21:00, 21:45"
LOS CAPULINES,144,"06:00, 07:00, 07:30, 08:00, 08:30, 09:00, 10:00, 11:00, 12:00, 12:30, 13:00, 14:00, 14:30, 15:00, 16:00, 17:00, 19:30, 20:00, 21:45"
LAGOS DE MORENO,296,09:45
MEXICO NORTE,816,"05:00, 07:00, 09:00, 10:00, 11:40,  15:00, 18:30"
MORELIA,442,"07:30, 08:30, 12:30, 14:30"
OCOTLAN ,132,"04:40, 05:00,05:30, 06:00, 06:30, 07:00, 07:30, 08:00, 08:30, 09:00, 09:30, 10:00, 10:30, 11:00, 11:30, 12:00, 12:30, 13:00, 13:30, 14:00, 14:30, 15:00, 15:30, 16:00, 16:30, 17:00, 17:30, 18:00, 18:30, 19:00, 19:30, 20:00, 20:30, 21:00, 21:45"
LEON,359,"07:55, 09:45, 11:45"
PEGUEROS,106,"06:45, 07:55, 08:45, 09:45, 10:45, 11:45, 12:45, 13:45, 14:45, 16:45, 18:45, 19:20"
PENJAMO,331,"05:00, 06:00, 06:20, 07:00, 07:40, 08:00, 08:20, 09:00, 09:40, 10:00, 11:00, 11:40, 12:00, 12:20,  13:00, 13:40, 14:00, 14:20, 15:00, 15:40, 16:00, 16:20, 17:00,18:20, 18:30,21:30"
LA PIEDAD,270,"05:00, 05:40,06:00, 06:20, 07:00, 07:40, 08:00, 08:20, 09:00, 09:40, 10:00, 10:20, 11:00, 11:40, 12:00, 12:20, 13:00, 13:40, 14:00, 14:20, 15:00, 15:40, 16:00, 16:20, 17:00, 17:40, 18:20, 18:30, 19:00, 19:30, 19:40, 20:00, 20:20. 21:30"
PURISIMA DE BUSTOS,282,"07:55, 11:45, 13:45"
QUERETARO,556,"05:00, 07:00, 09:00. 14:20, 15:00, 18:30"
QUIROGA,390,"07:30, 08:30, 12:30, 14:30"
IRAPUATO,393,"05:00, 06:00, 06.20, 07:00, 07:40, 08:00, 08:20, 09:00, 09:40, 10;00, 11:00, 11:40, 12:00, 12:20, 13:00, 13:40, 14:00, 14:20, 15:00, 15:40 16:00, 16:20 16:40, 17:00, 18:20, 18:30, 21:30"
SALAMANCA,442,"05:00, 07:40, 08:20, 09:40, 10:00, 11:00, 11:40, 12:00, 12:20, 13:00, 13:40, 14:20, 16:20, 17:00, 18:30. 21:30"
SAN ANTONIO DE FDEZ,130,"05:00, 05:40,  07:40, 08:20, 09:40, 10:20, 11:00, 12:20, 14:20, 16:20, 17:00, 18:20, 19:00, 19:40, 20:20"
SAN DIEGO DE ALEJANDRIA,244,"07:55, 11:45, 13:45"
SAN FCO DEL RINCO,314,"07:55, 13:45"
S. IGNACIO CERRO GORDO,134,"06:15, 07:15, 08:15, 09:15, 10:15, 11:15, 12:15, 13:15, 14:15, 16:15, 17:15, 18:15, 20:00"
SAN JUAN DE LOS LAGOS,296,09:45
SAN JULIAN,203,"07:55, 11:45, 13:45"
SAN MIGUEL EL ALTO,158,"07:55, 11:45, 13:45, 19:20"
SAN SIMON,224,"07:30, 08:30, 12:30, 14:30, 21:45"
TANHUATO,217,"05:00, 06:00, 07:00, 08:00, 09:00, 10:00, 11:00, 12:00, 13:00, 14:00, 15:00, 16:00, 17:00, 18:30, 19:30, 20:00"
TEOCALTICHE,208,"06:45, 08:45, 10:45, 12:45, 14:45, 16:45, 18:45"
TECNOLOGICO DE OCOTLAN,120,4:40
TEPATITLAN,74,"06:15, 06:45, 07:15, 07:55, 08:15, 08:45,  09.15, 09:45, 10:15, 10:45, 11:15, 11:45,  12:15, 12:45, 13:15, 13:45, 14:15, 14:45, 15:15, 16:15, 16:45, 17:15, 18:15, 18:45, 19:20, 20:00"
TOTOTLAN,108," 04:40, 05:00, 05:40, 06:20, 07:00, 07:40, 08:20, 09:00, 09:40, 10:20, 11:00, 11:40, 12:20, 13:00, 13:40, 14:20, 15:00, 15:40, 16:20, 17:00, 17:40, 18:20, 19:00, 19:40, 20:20, 21:30"
VALLE DE GUADALUPE,114,"06:45, 07:55, 08:45, 09:45, 10:45, 12:45, 13:45, 14:45, 16:45, 18:45, 19:15"
VISTA HERMOSA,201," 05:00, 05:30, 06:00, 06:30, 07:00, 07:30, 08:00, 08:30, 09:00, 09:30,10:00, 10:30, 11:00, 11:30, 12:00, 12:30. 13:00, 13:30, 14:00, 14:30, 15:00, 15:30, 16:00, 16:30, 17:00, 18:00, 18:30, 19:30, 20:00, 21:45"
VILLA CORONA,68,5:15
YURECUARO,229,"05:00, 06:00, 07:00, 08:00, 09:00, 10:00, 11:00, 12:00, 13:00, 14:00, 15:00, 16:00, 17:00, 18:30, 19:30. 20:00"
ZACAPU,330,"07:30, 08:30, 12:30, 14:30 "
ZAMORA,244," 05:30, 06:30, 07:30, 08:30, 09:30, 10:30, 11:30, 12:30, 13:30, 14:30, 15:30, 16:30, 18:00, 21:45"
GTA DE ZAPOTLANEJO,45,"04:40, 05:00, 05:40, 07:00, 07:40, 08:20, 09:00, 09:40, 10:20, 11:00, 11:40, 12:20, 13:00, 13:40, 14:20, 15:00, 16:20, 17:00, 17:40, 19:00, 19:40, 20:20"
