﻿Destino,Tarifa,Horarios
AGUASCALIENTES,435,"07:00, 08:20, 09:40, 11:00, 12:30, 14:00, 15:20, 16:40, 18:00, 19:20"
APATZINGAN,760,"12:00, 18:30"
ATLACOMULCO,800,"01:00, 15:30, 23:30, 23:45, 23:59"
AUTLAN,405,"06:00, 07:30, 09:00 11:00, 13:00, 16:30, 19:30. "
CASIMIRO CASTILLO,495,"06:00, 07:30, 19:30"
CAMPO ACOSTA,650,"07:30, 23:10"
CIHUATLAN,660,6:20
CD. GUZMAN,255,"09:00, 12:00, 14:30, 15:30, 16:30, 17:30, 20:00"
CELAYA,670,"07:10, 08:40, 10:10, 12:00, 14:100, 16:10, 18:10"
COLIMA,400,"02:00, 03:00, 05:00, 06:20, 07:30, 07:40, 09:00, 10:20, 11:20, 12:20, 13:20, 14:20, 15:20, 16:15, 16:20, 17:20, 19:30, 22:50"
COTIJA,350,16:00
EL TUITO,880,23:10
EL SUPER,610,"07:30, 23:10"
GUANAJUATO,625,"07:00, 08:00, 09:00, 10:00,11:00, 13:00, 14:40, 15.30, 16:20 17:10, 18:00"
GUAYABITOS,570,"06:00, 07:30, 09:00, 11:00"
IRAPUATO,550," 05:20, 06:40, 08:00, 10:00, 11:00, 12:00, 13:00, 14:00, 15:00, 16:00, 17:20, 18:40, 20:00,  21:30, 23:30"
JIQUILPAN,270,"16:00, 17:00"
LA BARCA,240,17:00
LA HUERTA,530,"06:00, 07:30, 19:30"
LA PEÑITA DE JALTEMBA,570,"03:10, 06:00, 07:30, 09:00, 11:00, 13:00, 15:00, 17:00"
LA PIEDAD,370,"07:100, 08:40, 10:10,  12:10, 14:10, 16:10, 18:10"
LAGOS DE MORENO,425,"09:10, 11:10, 13:40, 16:10, 18:40"
LA MANZANILLA,435,7:30
LEON,475," 04:00, 05:00, 06:00, 07:00, 08:00, 09:00, 10:00, 11:00, 12:00, 13:00, 13:50, 14:40, 15:30, 16:20, 17:10, 18:00, 19:00, 20:00, 21:00"
LOS REYES,480,"08:15, 13:30, 16:30"
MANZANILLO,560,"02:00, 03:00, 05:00, 06:20, 07:30, 07:40, 09:00, 10:20, 11:20, 12:20, 13:20, 14:20, 15:20,  16:20, 17:20, 19:30, 22:50,"
MAZATLAN,790,"00:40, 01:20, 07:00, 09:30, 12:00, 14:00, 16:00,18:30 22:00, 23:00, 23:59"
MELAQUE,660,"06:00, 06:20 07:30,  09:00, 23:10"
MEX.OBSERVATORIO,1000,23:45
MEXICO NTE,945,"00:30, 01:00,  05:00, 07:00, 08:20, 09:40, 11:00, 12:20, 13:40, 15:00, 16:20, 17:40, 19:00, 22:00, 22:30, 23:00, 23:15, 23:30, 23:45, 23:59"
MEXICO COAPA,1005,23:20
MORELIA,570," 04:30, 07:30, 09:30,  11:00, 12:30, 14:00,15:30, 17:30, 20:00,  23:59"
MORELOS,635,"07:30, 23:10"
NUEVO VALLARTA,670,"01:00, 02:00, 03:10, 04:20, 04:20, 05:50, 08:50, 10:20, 13:00, 15:00, 17:00"
PINO SUAREZ,795,23:10
PTO.VALLARTA,670,"01:00, 02:00, 03:10, 04:20, 05:50, 06:20, 07:20, 08:50, 10:20, 12:00, 13:40, 15:20, 17:00, . 20:20, 23:30"
PATIO SANTA FE,960,23:45
PATZCUARO,570,13:10
QUERETARO,755,"00:30, 05:20, 06:40, 08:00, 09:00, 10:00,11:00, 12:00, 13:00, 14:00, 15:00, 16:00. 17:20, 18:40,  20:00, 21:30, 23:00"
SAHUAYO,270,"16:00, 17:00"
SAN JUAN DE LOS LAGOS,320,"06:00, 09:00, 10:30, 12:00, 13:30, 15:00,  17:00, 19:00"
SAN LUIS POTOSI,710,"02:00, 06:00, 07:30, 09:00,  10:30, 12:00, 13:30, 15:00, 17:00,  19:00, 23:45"
SAN MIGUEL DE ALLENDE,805,"07:00, 09:00, 11:00, 13:00, 14:40"
SAYULITA,705,7:30
TECOMAN,575,16:15
TEPOTZOTLAN,945,0:10
TOLUCA,890,"01:00, 15:30, 23:30, 23:45, 23:59"
TOMATLAN,665,"07:30, 23:10"
UNION DE TULA,285,"06:00, 07:30, 09:00,  11:00, 13:00, 16:30, 19:30"
URUAPAN,555,"06:00, 09:15, 12:00, 14:30, 18:30"
ZACAPU,465,13:10
ZAMORA,340,"05:45, 06:00, 07:55, 08:15, 09:15, 10:15,  11:15, 12:00, 13:10, 13:30, 14:30, 15:10, 15:30, 16:30, 17:30, 18:10, 18:30, 19:30"
