﻿Destino,Tarifa,Horarios
GUANAJUATO,68 ,"06:00, 06:30, 07:00, 07:20, 07:40, 08:00, 08:20, 08:40 09:00, 09:30, 10:00, 10:30,  11:00, 11:30, 12:00, 12:30, 13:00, 13:20, 13:40 14:00, 14:20, 14:40 15:00, 15:30, 16:00 16:20, 16:40 17:00, 17:30, 18:00, 18:30, 19:00, 19:30, 20:00, 20:40,  21:30"
SALAMANCA CENTRO,32 ,"06:00, 06:30, 07:00, 07:30, 08:00, 08:20, 08,40, 09:00, 09:20, 09:40, 10:00, 10:20, 10:40, 11:00, 11:30, 12:00, 12:30, 13:00, 13:20, 13:40, 14:00, 14:20, 14:40, 15:00, 15:20, 15:40, 16:00, 16:20, 16:40, 17:00, 17:20, 17:40, 18:00, 18:20, 18:40, 19:00, 19:30, 20:00, 20:30, 21:05"
LEON,104 ,"04:20, 05:40, 06:00, 06:20, 06:40, 07:00, 07:15, 07:30, 07:45, 08:00, 08:15, 08:30, 08:45, 09:00, 09:20, 09:40, 10:00, 10:15, 10:30, 10:45, 11:00, 11:20, 11:40, 12:00, 12:20, 12:40, 13:00, 13:20, 13:40, 14:00, 14:20, 14:40, 15:00, 15:20, 15:40, 16:00, 16:20, 16:40, 17:00, 17:20, 17:40, 18:00, 18:20, 18:40,  19:00, 19:20, 19:40, 20:20, 20:50, 21:30, 22:00, 23:30"
SILAO,55 ,"04:20, 05:40, 06:00, 06:20, 06:40, 07:00, 07:15, 07:30, 07:45, 08:00, 08:15, 08:30, 08:45, 09:00, 09:20, 09:40, 10:00, 10:15, 10:30, 10:45, 11:00, 11:20, 11:40, 12:00, 12:20, 12:40, 13:00, 13:20, 13:40, 14:00, 14:20, 14:40, 15:00, 15:20, 15:40, 16:00, 16:20, 16:40, 17:00, 17:20, 17:40, 18:00, 18:20, 18:40,  19:00, 19:20, 19:40, 20:20, 20:50, 21:30, 22:00, 23:30"
PUERTO INTERIOR,74 ,"04:20, 05:40, 06:00, 07:45,  08:45,  09:00, 09:20, 09:40, 10:00, 10:15, 10:45, 11:00, 11:20,  12:00, 12:40, 13:00,  13:40, 14:00, 15:00, 16:00, 16:20, 17:10, 17:40, 17:55, 18:30, 18:50, 21:20"
SANTA TERESA,61 ,"06:00, 06:30, 07:00, 07:20, 07:40, 08:00, 08:20, 08:40 09:00, 09:20, 09:40, 10:00, 10:30,  11:00, 11:30, 12:00, 12:30, 13:00, 13:20, 13:40 14:00, 14:20, 14:40 15:00, 15:20, 15:40 16:20, 16:40 17:00, 17:30, 18:00, 18:30, 19:00, 19:30, 20:00, 20:40,  21:30"
