Destino,Tarifa,Horarios
AEROPUERTO DE GUADALAJARA,560,"00:30, 02:00"
AEROPUERTO DE MEXICO,830,23:10
AGUASCALIENTES,255,"4:00, 5:20, 7:00, 08:10, 09:20, 10:30, 11:30, 12:40, 13:40, 14:40, 15:40, 16:40, 17:40, 18:40, 19:40, 21:40"
ATLACOMULCO,645,"08:00, 12:00, 16:00, 23:59"
CELAYA,255,"07:20, 08:50, 10:20, 11:20, 12:20, 13:20, 14:20, 15:20, 16:20, 17:20, 18:20, 19:30, 20:40"
COLIMA,930,23:59
GUADALAJARA,495,"00:30, 02:00, 06:00, 07:00, 08:00, 09:20, 10:40,  12:00, 13:00, 14:00, 15:00, 16:00, 17:00, 18:00, 19:10, 20:20, 21:30, 23:00, 23:59"
GUANAJUATO,115,"08:10, 10:10, 11:10, 12:10, 13:10, 14:10, 16:10, 17:50, 18:40, 19:30, 20:20, 20:30, 21:10"
IRAPUATO,140,"05:40, 06:20, 7:00, 07:40, 8:20, 9:40, 10:50, 12:10, 13:20, 14:30, 15:40, 16:50, 18:00, 19:20, 20:40, 22:00, 23:50"
IXTAPA ZIHUATANEJO,"1265",23:50
LA PIEDAD,295,16:30
MANZANILLO,"1110",23:59
MAZATLAN,"1435",21:30
MEXICO COAPA,735,"01:15, 09:20, 14:00"
MEXICO NORTE,675,"00:50, 01:40, 02:30,05:20, 06:10, 07:00, 08:10, 09:20, 10:20, 11:20,12:20, 13:20, 14:20, 15:20, 16:30, 17:40, 19:00, 20:20, 23:00, 23:30, 23:59"
MEXICO OBSERVATORIO,720,"10:40, 15:00"
MORELIA,430,"05:40, 7:00, 8:20,  9:40, 11:00, 12:10, 13:20, 14:30, 15:40, 16:50, 18:00, 19:20, 20:40, 22:00"
MOROLEON,315,"06:20, 08:40, 10:50, 13:00, 15:00, 18:00"
NUEVO VALLARTA,"1290","07:00, 23:00"
PATIO SANTA FE,680,"10:40, 15:00"
PUERTO VALLARTA,"1290","07:00, 23:00"
QUERETARO,365,"06:40, 8:00, 9:20, 10:40, 12:00, 13:00, 14:00, 15:00, 16:00, 17:00, 18:00, 19:10,  20:20, 23:10"
SALAMANCA,170,"08:40,11:00, 13:00, 15:00, 16:30, 18:00 ,20:00"
SAN JUAN DE LOS LAGOS,185,"04:00, 05:10, 11:00, 12:40"
SAN LUIS POTOSI,415,"07:00, 09:20, 11:40, 14:00, 16:30, 19:00"
SAN MIGUEL ALLENDE,300,"08:10, 10:10, 12:10, 14:10, 16:10, 17:50"
TERMINAL ZAPOPAN,505,"07:00, 21:30"
TOLUCA,780,"08:00, 12:00, 16:00, 23:59"
URUAPAN,620,"08:20, 14:30"
VALLE DE SANTIAGO,225,"16:30, 20:00"
ZAMORA,465,16:30
