Destino,Tarifa,Horarios
AGUASCALIENTES,182,"06:00, 08:00, 09:00, 11:00, 12:00, 13:50, 16:20, 17:40, 19:10"
ARANDAS,200,"06:20, 14:40"
CELAYA,194,"05:30, 05:45, 07:00, 07:30, 08:50, 09:45, 10:00, 10:30, 10:45, 11:15, 11:30, 12:10, 12:30, 12:50, 13:05, 13:35, 14:30, 15:30, 16:30, 17:30, 19:10"
GUADALAJARA,359,"06:10, 12:15, 15:25"
IRAPUATO,102,"05:30, 05:45, 06:00, 06:15, 06:30, 06:45, 07:00, 07:15, 07:30,  07:50, 08:10, 08:30, 08:50, 09:10, 09:30, 09:45, 10:00, 10:15, 10:30, 10:45,  11:00, 11:15, 11:30, 11:50, 12:10, 12:30, 12:50, 13:05,  13:20, 13:35, 13:50, 14:30, 14:45, 15:00, 15:15, 15:30, 15:50, 16:10, 16:30 16:45, 17:00, 17:15, 17:30, 17:50, 18:10, 18:30, 18:50, 19:10, 19:30, 19:50 20:10, 20:40, 21:00, 21:50"
LAGOS DE MORENO,61,"05:30, 06:00, 06:30, 07:00, 07:30, 08:00, 08:30, 09:00, 09:20 , 09:30, 10:00, 10:30, 11:00,  11:30, 12:00, 12:30, 13:10, 13:30, 13:50, 14:30, 15:10, 15:50, 16:20, 17:00, 17:20, 17:40, 18:10, 18:40, 19:10, 19:40, 20:20, 20:40, 21:20"
MEXICO NORTE,520,"05:45, 10:00"
MORELIA,302,"06:00, 07:15, 08:10, 09:10, 10:15, 11:00, 13:20, 13:50, 16:10, 17:15"
MOROLEON,226,"06:00, 06:30, 07:15, 08:10, 09:10, 10:15, 11:00, 11:50, 13:20, 13:50, 14:45, 16:10, 17:15, 18:10, 18:30, 19:50"
QUERETARO,252,"05:30, 07:30, 09:45, 10:30, 11:15, 11:30, 12:30, 13:05, 14:30, 15:30, 16:30, 17:30"
SALAMANCA,137,"05:30, 05:45, 06:00, 06:30, 07:00, 07:15, 07:30, 08:10,  08:50, 09:10, 09:45,  10:00, 10:15, 10:30, 10:45, 11:00, 11:15, 11:30, 11:50, 12:10, 12:30, 12:50, 13:05, 13:20, 13:35, 13:50, 14:30, 14:45, 15:30, 16:10, 16:30, 17:15, 17:30, 18:10, 18:30, 18:50, 19:10, 19:50, 20:10"
SAN FELIPE,122,"07:00, 09:15, 10:15, 11:15, 11:30, 12:15, 13:00, 13:15, 14:00, 14:15, 15:00, 15:15, 16:15, 17:00, 17:15, 18:15, 18:45"
SAN JUAN DE LOS LAGOS,137,"06:30, 07:30, 08:30, 09:20, 10:00, 10:30, 12:30, 14:30, 15:50, 17:00,18:40, 20:40"
SAN JUAN DEL RIO,314,"05:30, 07:30, 9:45, 10:30, 11:30, 12:30, 14:30, 16:30"
SAN JULIAN,97,"06:10, 07:55, 11:15, 12:15, 13:30, 15:25"
SAN LUIS POTOSI,283,"05:30, 09:30, 11:30, 13:10, 15:10, 17:20"
SILAO,35,"05:30, 05:45, 06:00, 06:05, 06:10, 06:15, 06:20. 06:30, 06:45, 07:00, 07:15, 07:20, 07:30, 07:40, 07:50, 08:00, 08:10,  08:20, 08:30, 08:40, 08:50, 09:00,09:10, 09:15, 09:20,  09:30, 09:35, 09:45, 09:50,  10:00, 10:05, 10:15, 10:20, 10:30,  10:35, 10:45, 10:50, 11:00, 11:15, 11:20, 11:30, 11:35, 11:50, 11:58, 12:10, 12:15, 12:30, 12:50, 13:05, 13:15, 13:20, 13:35, 13:50, 14:15,  14:20,  14:30,14:35, 14:45, 14:50, 15:00, 15:15, 15:20,15:30, 15:35, 15:50, 16:10, 16:15, 16:20, 16:30, 16:40, 16:45, 17:00, 17:15, 17:20,17:30, 17:40, 17:50, 18:00, 18:10, 18:15, 18.20, 18:30, 18:40,18:50, 19:00, 19:10, 19:20, 19:30, 19:40, 19:50, 20:00, 20:10, 20:20, 20:40, 21:00, 21:21, 21:50, 22:00"
TEPATITLAN,255,"06:10, 07:00, 07:55, 08:30, 10:30, 11:15, 12:15, 12:30, 13:30, 14:30, 15:25, 15:50, 18:40"
TEPEJI DEL RIO,470,"05:30, 07:30, 9:45, 10:30, 11:30, 12:30, 14:30, 16:30"
TULA DE ALLENDE,492,"05:30, 07:30, 9:45, 10:30, 11:30, 12:30, 14:30, 16:30"
URIANGATO,225,"06:00, 06:30, 07:15, 08:10, 09:10, 10:15, 11:00, 11:50, 13:20, 13:50, 14:45, 16:10, 17:15, 18:10, 18:30, 19:50"
VALLE DE SANTIAGO,171,"06:00, 06:30, 07:15, 08:10, 09:10, 10:15, 11:00, 11:50, 13:20, 13:50, 14:45, 16:10, 17:15, 18:10, 18:30, 19:50, 20:10"
YURIRIA,200,"06:00, 06:30, 07:15, 08:10, 09:10, 10:15, 11:00, 11.50, 13:20, 13:50, 14:45, 16:10, 17:15, 18:10, 18:50, 19:50"
