Destino,Tarifa,Horarios
Aeropuerto de Guadalajara,610,"06:00, 11:00, 13:00, 15:00, 23:40, 23:59"
Aguascalientes,680,"9:40,13:20, 16:20"
Celaya,265,"5:50, 07:00, 08:20, 09:40, 11:00, 12:00, 14:00, 16:00, 17:00, 18:00, 19:10, 20:20"
Colima,780,23:59:00
Guadalajara,570," 06:00, 07:45, 09:15,11:00, 13:00, 15:00, 17:00, 20:00, 23:40"
Irapuato,275,"05:00, 06:10,7:20,08:30, 09:40, 11:00, 12:10, 13:20, 14:30, 15:40, 16:20, 17:00, 18:20, 19:40, 21:10"
Jiquilpan,350,16:40:00
La Piedad,385,"09:30, 13:00, 15:30, 18:00"
León,430,"05:00, 06:10, 07:20, 08:30, 09:50, 11:00, 12:10, 13:20, 14:30, 15:40, 17:00, 18:20, 19:40, 21:10"
Manzanillo,970,23:59:00
Mexico Norte,565,"2:00,06:00, 08:00, 10:00, 12:00, 13:30, 15:00, 16:30, 18:00, 19:30, 23:59"
Moroleón,80,"06:00, 14:30, 15:00"
Puerto Vallarta,"1505",20:00:00
Querétaro,365,"06:00, 07:00, 08:20, 09:40, 11:00, 12:00, 13:00, 14:00, 15:00, 16:00, 17:00, 18:00, 19:10, 20:20"
Sahuayo,350,16:40:00
Salamanca,240,"09:50, 14:30"
San Luis Potosí,810,"5:50, 08:20, 11:00, 13:20, 17:00"
San Miguel de Allende,390,5:50:00
Silao,360,13:20:00
Tecomán,960,23:59:00
Zamora,340,"08:00, 10:20, 12:30, 14:30, 16:40, 19:00"
