Destino,Tarifa,Horarios
ACAMBARO,89,"05:50, 10:45"
ACACHUEN,160,"05:30, 06:30, 07:30, 08:30, 09:30, 11:30, 12:30, 13:30, 15:30, 16:30 17:30"
ACULCO,272,"05:50, 10:45"
AMEALCO,208,"05:50, 10:45"
ATZIMBO,35,"05:30, 06:30, 07:30, 08:30, 09:30, 10:30, 11:15, 11:35, 12:15, 12:30, 13:30, 14:15, 14:30, 15:30, 16:15, 16:30, 17:30, 18:15, 18:30 19:30"
CARAPAN,150,"05:30, 06:30, 07:30, 08:30, 09:30, 11:30, 12:30, 13:30, 15:30, 16:30 17:30"
CASETA DE TEPOTZOTLAN,417,"06:40, 10:45, 11:45, 12:45,23:40"
CELAYA,196,"06:00, 06:40, 07:40, 08:40, 09:40, 10:15, 10:45, 11:15, 11:45, 12:45, 13:15, 13:45, 15:40, 17:30, 23:40"
CHILCHOTA,165,"05:30, 06:30, 07:30, 08:30, 09:30, 11:30, 12:30, 13:30, 15:30, 16:30 17:30"
COMANJA,83,"05:30, 06:30, 07:30, 08:30, 09:30, 10:30, 11:15, 11:35, 12:15, 12:30, 13:30, 14:15, 14:30, 15:30, 16:15, 16:30, 17:30, 18:15, 18:30 19:30"
CORONEO,171,"05:50, 10:45"
CUAMIO,49,"6:00,6:20,6:40,7:00,7:20,7:40,8:00,8:20,8:40,9:00,9:20,9:40,10:00,10:15,10:30,10:45,11:00,11:15,11:30,11:45,12:00,12:25,12:45,13:00,13:15,13:30,13:45,14:00,14:20,15:00,15:20,15:40,16:00,16:30,17:00,17:30,18:00,18:30,19:00,19:30,20:00"
CUARACURIO,54,"6:00,6:20,6:40,7:00,7:20,7:40,8:00,8:20,8:40,9:00,9:20,9:40,10:00,10:15,10:30,10:45,11:00,11:15,11:30,11:45,12:00,12:25,12:45,13:00,13:15,13:30,13:45,14:00,14:20,15:00,15:20,15:40,16:00,16:30,17:00,17:30,18:00,18:30,19:00,19:30,20:00"
CUITZEO,46,"6:00,6:20,6:40,7:00,7:20,7:40,8:00,8:20,8:40,9:00,9:20,9:40,10:00,10:15,10:30,10:45,11:00,11:15,11:30,11:45,12:00,12:25,12:45,13:00,13:15,13:30,13:45,14:00,14:20,15:00,15:20,15:40,16:00,16:30,17:00,17:30,18:00,18:30,19:00,19:30,20:00"
EL TIGRE,35,"05:30, 06:30, 07:30, 08:30, 09:30, 10:30, 11:15, 11:35, 12:15, 12:30, 13:30, 14:15, 14:30, 15:30, 16:15, 16:30, 17:30, 18:15, 18:30 19:30"
GUADALAJARA,460,"5:30,6:30,9:30,12:30"
HUANCITO,160,"05:30, 06:30, 07:30, 08:30, 09:30, 11:30, 12:30, 13:30, 15:30, 16:30 17:30"
HUANDACAREO,60,"06:30,07:40, 08:50, 10:00, 11:00, 12:00, 13:00, 14:00, 15:00, 16:10, 17:20, 18:50"
ICHAN,155,"05:30, 06:30, 07:30, 08:30, 09:30, 11:30, 12:30, 13:30, 15:30, 16:30 17:30"
IRAPUATO,225,"06:20, 07:00, 07:20, 08:00, 08:20, 09:00, 09:20, 10:00, 10:30, 11:00, 12:00, 12:25, 13:00, 13:30, 14:20, 15:00, 15:20, 16:30, 17:00, 18:00, 19:00."
JERECUARO,133,"05:50, 10:45"
LA BARCA,324,"5:30,6:30,9:30,12:30,15:30"
LA CINTA,53,"06:00, 06:20, 06:40, 07:00, 07:20, 07:40, 08:00, 08:20, 08:40, 09:00, 09:20, 09:40, 10:00, 10:15, 10:30, 10:45, 11:00, 11:15, 11:30, 11:45, 12:00, 12:25, 12:45, 13:00, 13:15, 13:30, 13:45, 14:00, 14:20, 15:00, 15:20, 15:40, 16:00, 16:30, 17:00, 17:30, 18:00, 18:30, 19:00, 19:30, 20:00, 23:40"
LA MAGDALENA,123,"06:20, 07:00, 07:20, 08:00, 08:20, 09:00, 09:20, 10:00, 10:30, 11:00, 12:00, 12:25, 13:00, 13:30, 14:20, 15:00, 15:20, 16:30, 17:00, 18:00, 19:00."
LA NORIA,35,"05:30, 06:30, 07:30, 08:30, 09:30, 10:30, 11:15, 11:35, 12:15, 12:30, 13:30, 14:15, 14:30, 15:30, 16:15, 16:30, 17:30, 18:15, 18:30 19:30"
LA PIEDAD,281,14:30:00
LEON,314,"6:20,7:00,8:00,9:00,10:00,11:00,12:00,14:20"
MEXICO NORTE,503,"05:50, 06:40, 10:45, 10:45, 11:45, 12:45. 23:40"
MOROLEON,58,"06:00, 06:20, 06:40, 07:00, 07:20, 07:40, 08:00, 08:20, 08:40, 09:00, 09:20, 09:40, 10:00, 10:15, 10:30, 10:45, 11:00, 11:15, 11:30, 11:45, 12:00, 12:25, 12:45, 13:00, 13:15, 13:30, 13:45, 14:00, 14:20, 15:00, 15:20, 15:40, 16:00, 16:30, 17:00, 17:30, 18:00, 18:30, 19:00, 19:30, 20:00, 23:40"
NARANJA,88,"05:30, 06:30, 07:30, 08:30, 09:30, 10:30, 11:15, 11:35, 12:15, 12:30, 13:30, 14:15, 14:30, 15:30, 16:15, 16:30, 17:30, 18:15, 18:30 19:30"
OCOTLAN,368,"05:30, 06:30, 9:30,12:30,15:30"
PALOS ALTOS,204,"5:50,10:45"
PUREPERO,144,14:30:00
PURUANDIRO,98,"6:30,7:40,8:50,10:00,11:00,12:00,13:00,14:00,15:00,16:10,17:20,18:50,"
QUERETARO,255,08:40:00
QUIROGA,35,"05:30, 06:30, 07:30, 08:30, 09:30, 10:30, 11:15, 11:35, 12:15, 12:30, 13:30, 14:15, 14:30, 15:30, 16:15, 16:30, 17:30, 18:15, 18:30 19:30"
SALAMANCA,177,"06:20, 07:00, 07:20, 08:00, 08:20, 09:00, 09:20, 10:00, 10:30, 11:00, 12:00, 12:25, 13:00, 13:30, 14:20, 15:00, 15:20, 16:30, 17:00, 18:00, 19:00"
SALVATIERRA,138,"06:00, 06:40, 07:40, 08:40, 09:40, 10:15, 10:45, 11:15, 11:45, 12:45, 13:15, 13:45, 15:40, 17:30, 23:40"
SAN PEDRO DE LOS NARANJOS,127,"06:00, 06:40, 07:40, 08:40, 09:40, 10:15, 10:45, 11:15, 11:45, 12:45, 13:15, 13:40, 15:40, 17:30, 23:40"
SANTA FE,40,"05:30, 06:30, 07:30, 08:30, 09:30, 10:30, 11:15, 11:35, 12:15, 12:30, 13:30, 14:15, 14:30, 15:30, 16:15, 16:30, 17:30, 18:15, 18:30 19:30"
SILAO,290,"06:20, 07:00, 08:00, 09:00, 10:00, 11:00, 12:00, 14:20"
TANAQUILLO,160,"05:30, 06:30, 07:30, 08:30, 09:30, 11:30, 12:30, 13:30, 15:30, 16:30 17:30"
TANGANCICUARO,200,"05:30, 06:30, 07:30, 08:30, 09:30, 11:30, 12:30, 13:30, 15:30, 16:30 17:30"
UREN,160,"05:30, 06:30, 07:30, 08:30, 09:30, 11:30, 12:30, 13:30, 15:30, 16:30 17:30"
URIANGATO,58,"6:00, 06:20, 06:40, 07:00, 07:20, 07:40, 08:00, 08:20, 08:40, 09:00, 09:20, 09:40, 10:00, 10:15, 10:30, 10:45, 11:00, 11:15, 11:30, 11:45, 12:00, 12:25, 12:45, 13:00, 13:15, 13:30, 13:45, 14:00, 14:20, 15:00, 15:20, 15:40, 16:00, 16:30, 17:00, 17:30, 18:00, 18:30, 19:00, 19:30, 20:00, 23:40"
VALLE DE SANTIAGO,146,"06:20, 07:00, 07:20, 08:00, 08:20, 09:00, 09:20, 10:00, 10:30, 11:00, 12:00, 12:25, 13:00, 13:30, 14:20, 15:00, 15:20, 16:30, 17:00, 18:00, 19:00."
VILLA MORELOS,79,"06:30,07:40, 08:50, 10:00, 11:00, 12:00, 13:00, 14:00, 15:00, 16:10, 17:20, 18:50"
YURIRIA,79,"6:00,6:20,6:40,7:00,7:20,7:40,8:00,8:20,8:40,9:00,9:20,9:40,10:00,10:15,10:30,10:45,11:00,11:15,11:30,11:45,12:00,12:25,12:45,13:00,13:15,13:30,13:45,14:00,14:20,15:00,15:20,15:40,16:00,16:30,17:00,17:30,18:00,18:30,19:00,19:30,20:00"
ZACAPU,100,"05:30, 06:30, 07:30, 08:30, 09:30, 10:30, 11:30, 12:15, 12:30, 13:15, 13:30, 14:15, 14:30, 15:30, 16:15, 16:30, 17:15, 17:30, 18:30, 19:30"
ZAMORA,224,"05:30, 06:30, 07:30, 08:30, 09:30, 11:30, 12:30, 13:30, 15:30, 16:30, 17:30"
ZINAPARO,211,14:30:00
ZINAPECUARO,57,"05:50, 10:45"
ZOPOCO,151,"05:30, 06:30, 07:30, 08:30, 09:30,11:30,  12:30, 13:30, 15:30, 16:30, 17:30"
