Destino,Tarifa,Horarios
AGUASCALIENTES," 1265 ",13:20
ATLACOMULCO," 1615 ",17:20
CELAYA," 1475 ",21:30
COLIMA, 775 ,"13:00,15:00,22:00"
GUADALAJARA, 670 ,"01:40,08:00,10:00,12:00,13:20,14:40,16:00,17:20,20:10,22:00,23:00,23:59"
LEON," 1290 ","14:00,15:20,22:00"
MEXICO," 1420 ","20:00,21:00"
MORELIA," 1505 ",23:00
MANZANILLO, 610 ,"13:00,15:00,22:00"
MELAQUE, 460 ,"13:00,15:00,22:00"
QUERETARO," 1525 ",21:30
IRAPUATO," 1345 ",21:30
SAN LUIS POTOSI," 1555 ",20:10
TOMATLAN , 185 ,13:00
TOLUCA," 1765 ",17:20
ZAPOPAN , 670 ,"01:40,08:00,10:00,12:00,13:20,14:40,16:00,17:20,20:10,23:59"
