﻿Destino,Tarifa,Horarios
AEROPUERTO MEXICO,425,"00:15,01:00,01:30,01:45,02:00,02:30,03:00,03:30,04:00,04:40,05:20,06:00,06:30,07:00,07:30,08:00,08:30,09:00,09:30,10:00,10:30,11:00,11:30,12:00,12:30,13:00,13:30,14:00,14:40,15:20,16:00,16:40,17:20,18:00,18:40,23:30"
AGUASCALIENTES,555,"06:40,09:20,13:00,17:00,18:20,22:00"
AHUACATLAN DE GPE,385,"08:10,12:00,15:10"
AEROPUERTO MEXICO TERMINAL 2,425,"00:15,01:00,01:30,01:45,02:00,02:30,03:00,03:30,04:00,04:40,05:20,06:00,06:30,07:00,07:30,08:00,08:30,09:00,09:30,10:00,10:30,11:00,11:30,12:00,12:30,13:00,13:30,14:00,14:40,15:20,16:00,16:40,17:20,18:00,18:40,	23:30"
APATZINGAN,725,0:30
ATLACOMULCO,217,"01:20,03:20,07:30,08:30,09:30,10:30,11:30,12:30,13:30,14:30,15:30,16:30,17:30,18:30,20:40"
MEXICO COAPA,375,"06:20,07:40,08:40,09:40,10:40,11:20,12:00,12:40,13:20,14:00,14:50,15:40,16:30,17:20,18:10,19:00,20:40"
COLIMA,930,20:00
CELAYA,80,"00:40,02:00,03:00,04:20,05:00,05:20,06:50,08:50,09:30,10:40,10:50,12:40,12:50,14:00,14:10,16:45,16:50,16:50,18:50,19:10,19:40,19:45,19:50,21:10,21:20,21:40,22:00,22:10,23:00,23:20,23:50"
EMBAJADA DE MEXICO,355,2:40
GUANAJUATO,290,"06:30,08:00,09:20,10:20,12:00,14:00,16:00,18:30"
GUADALAJARA,660,"01:30,03:00,05:00,06:00,07:20,09:00,10:30,12:00,13:00,14:00,14:40,15:20,16:00,16:40,17:20,18:10,19:00,19:40,20:30,21:15,22:00,23:00,23:59"
IXTAPA,1030,"11:30,23:59"
JALPAN,415,"08:10,12:00,15:10"
MANZANILLO,1190,20:00
MAZATLAN,1595,21:15
MEX. CTRAL. NORTE,365,"03:00,04:00,04:30,05:00,05:20,05:40,06:00,06:15,06:30,06:45,07:00,07:15,07:30,07:45,08:00,08:15,08:30,08:45,09:00,09:15,09:30,09:45,10:00,10:15,10:30,10:45,11:00,11:15,11:30,11:45,12:00,12:15,12:30,12:45,13:00,13:15,13:30,13:45,14:00,14:15,14:30,14:45,15:00,15:15,15:30,15:45,	16:00,16:15,16:30,16:45,17:00,17:15,17:30,17:45,18:00,18:15,18:30,18:45,19:00,19:20,19:40,20:00,20:20,20:40,21:00,21:30,22:30,23:30"
MEX. OBSERVATORIO,335,"05:05,06:05,07:05,07:50,08:35,09:35,10:35,11:05,11:35,12:35,13:35,14:35,15:35,16:20,17:00,17:40,18:40,19:40,21:40"
MEZCALES,1305,22:00
MORELIA,320,"00:30,02:00,04:20,05:20,06:50,07:50,08:50,09:50,10:50,11:50,12:50,13:50,14:50,15:50,16:50,17:50,18:50,19:50,21:00,22:10,23:20"
MOROLEON,225,"02:00,04:20,05:20,06:50,07:50,09:50,19:50,22:10"
NUEVO VALLARTA,1305,22:00
LEON,316,"00:20,06:20,07:20,08:00,08:40,09:20,10:00,10:35,11:10,11:45,12:20,13:00,13:40,14:20,15:00,15:40,16:20,17:00,17:40,18:20,19:00,19:40,20:20,21:00,22:00"
PLAZA LAS AMERICAS,365,"08:00,15:00,17:30"
LA PEÑITA DE JALTEMBA,1205,22:00
LA PIEDAD,355,"08:00,17:00"
PINAL DE AMOLES,355,"08:10,12:00,15:10"
PLAZA CIUDAD JARDIN,365,"	07:00,11:00,14:00,17:40"
PATIO STFE PTA 1,335,"05:05,	06:05,07:05,07:50,11:05,14:35,16:20,17:40"
PTO. VALLARTA,1300,"20:30,21:40"
IRAPUATO,185,"06:00,06:40,	07:20,08:20,09:30,10:40,12:00,13:00,13:50,14:40,15:20,16:00,16:40,17:20,18:10,19:00,19:40,20:20,21:00,21:40"
SALAMANCA,157,"06:30,08:00,09:20,14:00,16:00,18:30"
SAN JOSE ITURBIDE,74,22:00
SAN JUAN DE LOS LAGOS,495,0:20
SAN LUIS POTOSI,335,"03:10,05:10,06:10,07:10,08:10,08:50,09:30,10:20,11:00,11:50,12:30,13:10,13:50,14:30,15:10,15:50,16:30,17:10,17:50,18:30,19:15,20:00,20:50,21:40,23:30"
SAN MIGUEL ALLENDE,90,"07:30,09:30,11:30,13:30,15:30,17:30,19:30"
TERMINAL TEPOTZOTLAN,335,"06:35,07:35,08:35,09:35,10:35,11:35,12:35,13:35,14:35,15:35,16:20,17:00,17:50,18:40,19:10,19:40,20:40,21:40"
TOLUCA,320,"01:20,03:20,07:30,08:30,09:30,10:30,11:30,12:30,13:30,14:30,15:30,16:30,17:30,18:30,20:40"
TULA DE ALLENDE,296,"08:00,11:00,13:50,17:40,20:50"
TERMINAL ZAPOPAN,680,1:30
URUAPAN,550,"00:30,04:20,08:50"
XILITLA,525,12:00
ZAMORA,455,"08:00,17:00"
ZIHUATANEJO,1030,"23:30,23:59"