Destino,Tarifa,Horarios
CELAYA,535,"17:00,"
GUADALAJARA,945,"23:59,"
LEON,720,"09:30,"
PLAZA DEL SOL,945,"23:59,"
QUERETARO,390,"08:00, 09:30, 11:00, 12:40, 14:20, 16:00, 17:00, 18:00, 19:00, 20:00, 21:30,"
IRAPUATO,650,"11:00,"
